{
  "name": "SimpleRule",
  "originalSentence": "",
  "id": 457256300,
  "interval": 0,
  "actions": [
    {
      "condition": "a \u003e b",
      "thenActions": [
        {
          "output": "10",
          "value": "Width"
        }
      ]
    }
  ]
}